…
``` r
construction_counts = as_tibble(read.csv('FINAL_DATA_countruction_counts_and_student_info_with_scores.csv'))
```

``` r
#Get proportions
construction_props = construction_counts %>% 
  mutate(prop_goingTo_construction = count_goingTo_construction/(count_will_construction+count_goingTo_construction), .after = anon_id) %>% 
  mutate(prop_will_construction = count_will_construction/(count_will_construction+count_goingTo_construction), .after = anon_id)

construction_props
```

    ## # A tibble: 1,078 × 35
    ##        X anon_id prop_will_construction prop_goingTo_construction
    ##    <int> <chr>                    <dbl>                     <dbl>
    ##  1     1 aa0                     1                         0     
    ##  2     2 aa1                     1                         0     
    ##  3     3 aa2                     0.909                     0.0909
    ##  4     4 aa3                     0.75                      0.25  
    ##  5     5 aa5                     1                         0     
    ##  6     6 aa8                     0.0833                    0.917 
    ##  7     7 aa9                     0.571                     0.429 
    ##  8     8 ab2                     1                         0     
    ##  9     9 ab6                     1                         0     
    ## 10    10 ab8                     1                         0     
    ## # ℹ 1,068 more rows
    ## # ℹ 31 more variables: count_will_construction <int>,
    ## #   count_goingTo_construction <int>, gender <chr>, birth_year <int>,
    ## #   native_language <chr>, language_used_at_home <chr>,
    ## #   non_native_language_1 <chr>, yrs_of_study_lang1 <chr>,
    ## #   study_in_classroom_lang1 <chr>, ways_of_study_lang1 <chr>,
    ## #   non_native_language_2 <chr>, yrs_of_study_lang2 <chr>, …
…
``` r
#Correlation of Proficiency Scores:

scaled_construction_props = construction_props %>% 
  select(anon_id, prop_will_construction, prop_goingTo_construction, LCT_Score, MTELP_I, MTELP_II, MTELP_III, MTELP_Conv_Score, Writing_Sample) %>% 
  mutate(across(-c(anon_id,prop_will_construction, prop_goingTo_construction), ~ scale(.x))) 
  
  
scaled_construction_props
```

    ## # A tibble: 1,078 × 9
    ##    anon_id prop_will_construction prop_goingTo_construction LCT_Score[,1]
    ##    <chr>                    <dbl>                     <dbl>         <dbl>
    ##  1 aa0                     1                         0              1.51 
    ##  2 aa1                     1                         0             -1.10 
    ##  3 aa2                     0.909                     0.0909        -0.613
    ##  4 aa3                     0.75                      0.25           1.51 
    ##  5 aa5                     1                         0             -0.940
    ##  6 aa8                     0.0833                    0.917          0.855
    ##  7 aa9                     0.571                     0.429         -2.08 
    ##  8 ab2                     1                         0             -0.613
    ##  9 ab6                     1                         0              0.529
    ## 10 ab8                     1                         0             -0.940
    ## # ℹ 1,068 more rows
    ## # ℹ 5 more variables: MTELP_I <dbl[,1]>, MTELP_II <dbl[,1]>,
    ## #   MTELP_III <dbl[,1]>, MTELP_Conv_Score <dbl[,1]>, Writing_Sample <dbl[,1]>
…
