…
    ## Warning: `as.tibble()` was deprecated in tibble 2.0.0.
    ## ℹ Please use `as_tibble()` instead.
    ## ℹ The signature and semantics have changed, see `?as_tibble`.
    ## This warning is displayed once every 8 hours.
    ## Call `lifecycle::last_lifecycle_warnings()` to see where this warning was
    ## generated.

``` r
data
```

    ## # A tibble: 46,204 × 15
    ##    answer_id anon_id L1      gender semester  placement_test course_id level_id
    ##        <int> <chr>   <chr>   <chr>  <chr>              <dbl>     <int>    <int>
    ##  1         1 eq0     Arabic  Male   2006_fall             NA       149        4
    ##  2         2 am8     Thai    Female 2006_fall             NA       149        4
    ##  3         3 dk5     Turkish Female 2006_fall             NA       115        4
    ##  4         4 dk5     Turkish Female 2006_fall             NA       115        4
    ##  5         5 ad1     Korean  Female 2006_fall             NA       115        4
    ##  6         6 ad1     Korean  Female 2006_fall             NA       115        4
    ##  7         7 eg5     Korean  Female 2006_fall             NA       115        4
    ##  8         8 eg5     Korean  Female 2006_fall             NA       115        4
    ##  9         9 ad1     Korean  Female 2006_fall             NA       115        4
    ## 10        10 ad1     Korean  Female 2006_fall             NA       115        4
    ## # ℹ 46,194 more rows
    ## # ℹ 7 more variables: class_id <chr>, question_id <int>, version <int>,
    ## #   text_len <int>, text <chr>, tokens <chr>, tok_lem_POS <chr>
…
  )
```

    ## # A tibble: 1,177 × 8
    ##    anon_id will_ct goingto_ct gender  birth_year native_language
    ##    <chr>     <int>      <int> <chr>        <int> <chr>          
    ##  1 aa0           7          0 Male          1984 Spanish        
    ##  2 aa1          40          0 Male          1983 Chinese        
    ##  3 aa2          20          2 Male          1967 Arabic         
    ##  4 aa3           3          1 Unknown         NA Chinese        
    ##  5 aa5           2          0 Unknown         NA Chinese        
    ##  6 aa8           1         23 Female        1976 Korean         
    ##  7 aa9           4          4 Male          1987 Korean         
    ##  8 ab1           1          0 Male            NA Hebrew         
    ##  9 ab2          11          0 Female          NA Arabic         
    ## 10 ab6           4          0 Male            NA Chinese        
    ## # ℹ 1,167 more rows
    ## # ℹ 2 more variables: yrs_in_english_environment <chr>,
    ## #   yrs_of_english_learning <chr>
…
